{
    "key": "group_5c8fb2d85a4c6",
    "title": "Colors",
    "fields": [
        {
            "key": "field_5c8fb2de54be4",
            "label": "color",
            "name": "color",
            "type": "select",
            "instructions": "",
            "required": 0,
            "conditional_logic": 0,
            "wrapper": {
                "width": "",
                "class": "",
                "id": ""
            },
            "choices": {
                "black": "black (zwart)",
                "grey-dark": "grey-dark (donker grijs)",
                "terracotta": "terracotta (rood)",
                "manhattan": "manhattan (roze)",
                "rajah": "rajah (oranje)",
                "aqua": "aqua (blauw \/ groen)",
                "green-yellow": "green-yellow (groen \/ geel)",
                "golden": "golden (goud)",
                "solitaire": "solitaire (licht geel)",
                "banana": "banana (geel)",
                "brown": "brown (bruin)"
            },
            "default_value": [],
            "allow_null": 0,
            "multiple": 0,
            "ui": 0,
            "return_format": "value",
            "ajax": 0,
            "placeholder": ""
        }
    ],
    "location": [
        [
            {
                "param": "post_type",
                "operator": "==",
                "value": "post"
            }
        ]
    ],
    "menu_order": 0,
    "position": "normal",
    "style": "default",
    "label_placement": "top",
    "instruction_placement": "label",
    "hide_on_screen": "",
    "active": 0,
    "description": "",
    "modified": 1552922431
}